FPGA project/Project/test.vcd
$date
	Thu Feb 01 19:41:39 2024
$end
$version
	Icarus Verilog
$end
$timescale
	1ps
$end
$scope module Main $end
$var wire 12 ! area_encoder_decoder [11:0] $end
$var wire 1 " busy $end
$var wire 8 # data_encoder_sender [7:0] $end
$var wire 8 $ data_receiver_decoder [7:0] $end
$var wire 1 % data_sender_receiver $end
$var wire 1 & debug0 $end
$var wire 1 ' debug1 $end
$var wire 1 ( debug10 $end
$var wire 1 ) debug11 $end
$var wire 1 * debug12 $end
$var wire 1 + debug13 $end
$var wire 1 , debug14 $end
$var wire 1 - debug15 $end
$var wire 1 . debug16 $end
$var wire 1 / debug17 $end
$var wire 1 0 debug18 $end
$var wire 1 1 debug19 $end
$var wire 1 2 debug2 $end
$var wire 1 3 debug20 $end
$var wire 1 4 debug21 $end
$var wire 1 5 debug22 $end
$var wire 1 6 debug23 $end
$var wire 1 7 debug24 $end
$var wire 1 8 debug25 $end
$var wire 1 9 debug26 $end
$var wire 1 : debug27 $end
$var wire 1 ; debug28 $end
$var wire 1 < debug29 $end
$var wire 1 = debug3 $end
$var wire 1 > debug30 $end
$var wire 1 ? debug31 $end
$var wire 1 @ debug32 $end
$var wire 1 A debug33 $end
$var wire 1 B debug34 $end
$var wire 1 C debug35 $end
$var wire 1 D debug36 $end
$var wire 1 E debug37 $end
$var wire 1 F debug38 $end
$var wire 1 G debug39 $end
$var wire 1 H debug4 $end
$var wire 1 I debug40 $end
$var wire 1 J debug41 $end
$var wire 1 K debug42 $end
$var wire 1 L debug43 $end
$var wire 1 M debug44 $end
$var wire 1 N debug45 $end
$var wire 1 O debug46 $end
$var wire 1 P debug47 $end
$var wire 1 Q debug48 $end
$var wire 1 R debug49 $end
$var wire 1 S debug5 $end
$var wire 1 T debug50 $end
$var wire 1 U debug51 $end
$var wire 1 V debug52 $end
$var wire 1 W debug53 $end
$var wire 1 X debug54 $end
$var wire 1 Y debug55 $end
$var wire 1 Z debug56 $end
$var wire 1 [ debug57 $end
$var wire 1 \ debug58 $end
$var wire 1 ] debug59 $end
$var wire 1 ^ debug6 $end
$var wire 1 _ debug60 $end
$var wire 1 ` debug61 $end
$var wire 1 a debug62 $end
$var wire 1 b debug63 $end
$var wire 1 c debug7 $end
$var wire 1 d debug8 $end
$var wire 1 e debug9 $end
$var wire 1 f done_decoder $end
$var wire 1 g done_encoder_decoder $end
$var wire 1 h done_encoder_sender $end
$var wire 1 i done_receiver_decoder $end
$var wire 8 j primeter_encoder_decoder [7:0] $end
$var wire 1 k ready_to_send $end
$var wire 7 l start_col_encoder_decoder [6:0] $end
$var wire 7 m start_row_encoder_decoder [6:0] $end
$var reg 1 n clk $end
$var reg 1 o reset $end
$var reg 1 p start_encoder $end
$scope module u_Encoder $end
$var wire 1 q clk $end
$var wire 1 r reset $end
$var wire 1 h sender_done $end
$var wire 1 s start $end
$var wire 7 t start_col [6:0] $end
$var wire 7 u start_row [6:0] $end
$var reg 12 v area [11:0] $end
$var reg 12 w black_number [11:0] $end
$var reg 1024 x border [1023:0] $end
$var reg 8 y code [7:0] $end
$var reg 6 z col [5:0] $end
$var reg 1 { done $end
$var reg 1 | error $end
$var reg 10 } index_border [9:0] $end
$var reg 10 ~ index_send [9:0] $end
$var reg 8 !" primeter [7:0] $end
$var reg 1 "" ready_to_send $end
$var reg 6 #" reg_start_col [5:0] $end
$var reg 6 $" reg_start_row [5:0] $end
$var reg 6 %" row [5:0] $end
$var reg 3 &" state [2:0] $end
$var reg 1 '" update_index_border $end
$var reg 1 (" update_index_send $end
$upscope $end
$scope module u_UART_sender $end
$var wire 1 q clk $end
$var wire 8 )" data_in [7:0] $end
$var wire 1 k start $end
$var reg 3 *" bitIdx [2:0] $end
$var reg 1 +" busy $end
$var reg 3 ," clk_count [2:0] $end
$var reg 8 -" data [7:0] $end
$var reg 1 ." done $end
$var reg 3 /" state [2:0] $end
$var reg 1 0" tx $end
$upscope $end
$scope module u_UART_receiver $end
$var wire 1 q clk $end
$var wire 1 i done $end
$var wire 1 % input_serial $end
$var wire 8 1" output_Byte [7:0] $end
$var reg 3 2" bit_index [2:0] $end
$var reg 8 3" clk_count [7:0] $end
$var reg 1 4" r_Rx_Data_R $end
$var reg 1 5" reg_done $end
$var reg 1 6" reg_input_data $end
$var reg 3 7" state [2:0] $end
$var reg 8 8" total_byte [7:0] $end
$upscope $end
$scope module u_Decoder $end
$var wire 12 9" area [11:0] $end
$var wire 1 q clk $end
$var wire 8 :" code [7:0] $end
$var wire 1 i done_receiver $end
$var wire 8 ;" primeter [7:0] $end
$var wire 1 r reset $end
$var wire 1 g start $end
$var wire 7 <" start_col [6:0] $end
$var wire 7 =" start_row [6:0] $end
$var reg 1024 >" border [1023:0] $end
$var reg 8 ?" calculated_primeter [7:0] $end
$var reg 6 @" col [5:0] $end
$var reg 64 A" debug0 [63:0] $end
$var reg 64 B" debug1 [63:0] $end
$var reg 64 C" debug10 [63:0] $end
$var reg 64 D" debug11 [63:0] $end
$var reg 64 E" debug12 [63:0] $end
$var reg 64 F" debug13 [63:0] $end
$var reg 64 G" debug14 [63:0] $end
$var reg 64 H" debug15 [63:0] $end
$var reg 64 I" debug16 [63:0] $end
$var reg 64 J" debug17 [63:0] $end
$var reg 64 K" debug18 [63:0] $end
$var reg 64 L" debug19 [63:0] $end
$var reg 64 M" debug2 [63:0] $end
$var reg 64 N" debug20 [63:0] $end
$var reg 64 O" debug21 [63:0] $end
$var reg 64 P" debug22 [63:0] $end
$var reg 64 Q" debug23 [63:0] $end
$var reg 64 R" debug24 [63:0] $end
$var reg 64 S" debug25 [63:0] $end
$var reg 64 T" debug26 [63:0] $end
$var reg 64 U" debug27 [63:0] $end
$var reg 64 V" debug28 [63:0] $end
$var reg 64 W" debug29 [63:0] $end
$var reg 64 X" debug3 [63:0] $end
$var reg 64 Y" debug30 [63:0] $end
$var reg 64 Z" debug31 [63:0] $end
$var reg 64 [" debug32 [63:0] $end
$var reg 64 \" debug33 [63:0] $end
$var reg 64 ]" debug34 [63:0] $end
$var reg 64 ^" debug35 [63:0] $end
$var reg 64 _" debug36 [63:0] $end
$var reg 64 `" debug37 [63:0] $end
$var reg 64 a" debug38 [63:0] $end
$var reg 64 b" debug39 [63:0] $end
$var reg 64 c" debug4 [63:0] $end
$var reg 64 d" debug40 [63:0] $end
$var reg 64 e" debug41 [63:0] $end
$var reg 64 f" debug42 [63:0] $end
$var reg 64 g" debug43 [63:0] $end
$var reg 64 h" debug44 [63:0] $end
$var reg 64 i" debug45 [63:0] $end
$var reg 64 j" debug46 [63:0] $end
$var reg 64 k" debug47 [63:0] $end
$var reg 64 l" debug48 [63:0] $end
$var reg 64 m" debug49 [63:0] $end
$var reg 64 n" debug5 [63:0] $end
$var reg 64 o" debug50 [63:0] $end
$var reg 64 p" debug51 [63:0] $end
$var reg 64 q" debug52 [63:0] $end
$var reg 64 r" debug53 [63:0] $end
$var reg 64 s" debug54 [63:0] $end
$var reg 64 t" debug55 [63:0] $end
$var reg 64 u" debug56 [63:0] $end
$var reg 64 v" debug57 [63:0] $end
$var reg 64 w" debug58 [63:0] $end
$var reg 64 x" debug59 [63:0] $end
$var reg 64 y" debug6 [63:0] $end
$var reg 64 z" debug60 [63:0] $end
$var reg 64 {" debug61 [63:0] $end
$var reg 64 |" debug62 [63:0] $end
$var reg 64 }" debug63 [63:0] $end
$var reg 64 ~" debug7 [63:0] $end
$var reg 64 !# debug8 [63:0] $end
$var reg 64 "# debug9 [63:0] $end
$var reg 1 ## done $end
$var reg 1 $# error $end
$var integer 32 %# i [31:0] $end
$var reg 10 &# index_border [9:0] $end
$var reg 1 '# paint $end
$var reg 1 (# pixel $end
$var reg 12 )# recived_area [11:0] $end
$var reg 8 *# recived_primeter [7:0] $end
$var reg 6 +# row [5:0] $end
$var reg 4 ,# should_start [3:0] $end
$var reg 2 -# state [1:0] $end
$var reg 1 .# update_index_border3 $end
$var reg 1 /# update_index_border8 $end
$upscope $end
$upscope $end
$enddefinitions $end
#0
$dumpvars
0/#
0.#
b0 -#
bx ,#
b0 +#
b0 *#
b0 )#
0(#
x'#
b0 &#
b1000000 %#
0$#
0##
bx "#
bx !#
bx ~"
bx }"
bx |"
bx {"
bx z"
bx y"
bx x"
bx w"
bx v"
bx u"
bx t"
bx s"
bx r"
bx q"
bx p"
bx o"
bx n"
bx m"
bx l"
bx k"
bx j"
bx i"
bx h"
bx g"
bx f"
bx e"
bx d"
bx c"
bx b"
bx a"
bx `"
bx _"
bx ^"
bx ]"
bx \"
bx ["
bx Z"
bx Y"
bx X"
bx W"
bx V"
bx U"
bx T"
bx S"
bx R"
bx Q"
bx P"
bx O"
bx N"
bx M"
bx L"
bx K"
bx J"
bx I"
bx H"
bx G"
bx F"
bx E"
bx D"
bx C"
bx B"
bx A"
b0 @"
b0 ?"
bx >"
b0 ="
b0 <"
b0 ;"
bx :"
b0 9"
bx 8"
b0 7"
16"
05"
14"
b0 3"
b0 2"
bx 1"
x0"
b0 /"
x."
b0 -"
bx ,"
x+"
b0 *"
bx )"
0("
0'"
b0 &"
b0 %"
b0 $"
b0 #"
0""
b0 !"
b0 ~
b0 }
x|
x{
b0 z
bx y
bx x
b0 w
b0 v
b0 u
b0 t
xs
1r
0q
xp
1o
0n
b0 m
b0 l
0k
b0 j
0i
xh
xg
0f
xe
xd
xc
xb
xa
x`
x_
x^
x]
x\
x[
xZ
xY
xX
xW
xV
xU
xT
xS
xR
xQ
xP
xO
xN
xM
xL
xK
xJ
xI
xH
xG
xF
xE
xD
xC
xB
xA
x@
x?
x>
x=
x<
x;
x:
x9
x8
x7
x6
x5
x4
x3
x2
x1
x0
x/
x.
x-
x,
x+
x*
x)
x(
x'
x&
x%
bx $
bx #
x"
b0 !
$end
#50000
b1 /"
x6"
b1000000 %#
1n
1q
#100000
0n
0q
#150000
b0 ,"
0+"
0"
0."
0h
10"
1%
b1000000 %#
1n
1q
#200000
0n
0q
#250000
16"
b1000000 %#
1n
1q
#300000
0n
0q
1p
1s
0o
0r
#350000
b1 &"
1n
1q
#400000
0n
0q
#450000
b1 z
1n
1q
#500000
0n
0q
#550000
b10 z
1n
1q
#600000
0n
0q
#650000
b11 z
1n
1q
#700000
0n
0q
#750000
b100 z
1n
1q
#800000
0n
0q
#850000
b101 z
1n
1q
#900000
0n
0q
#950000
b110 z
1n
1q
#1000000
0n
0q
#1050000
b111 z
1n
1q
#1100000
0n
0q
#1150000
b1000 z
1n
1q
#1200000
0n
0q
#1250000
b1001 z
1n
1q
#1300000
0n
0q
#1350000
b1010 z
1n
1q
#1400000
0n
0q
#1450000
b1011 z
1n
1q
#1500000
0n
0q
#1550000
b1100 z
1n
1q
#1600000
0n
0q
#1650000
b1101 z
1n
1q
#1700000
0n
0q
#1750000
b1110 z
1n
1q
#1800000
0n
0q
#1850000
b1111 z
1n
1q
#1900000
0n
0q
#1950000
b10000 z
1n
1q
#2000000
0n
0q
#2050000
b10001 z
1n
1q
#2100000
0n
0q
#2150000
b10010 z
1n
1q
#2200000
0n
0q
#2250000
b10011 z
1n
1q
#2300000
0n
0q
#2350000
b10100 z
1n
1q
#2400000
0n
0q
#2450000
b10101 z
1n
1q
#2500000
0n
0q
#2550000
b10110 z
1n
1q
#2600000
0n
0q
#2650000
b10111 z
1n
1q
#2700000
0n
0q
#2750000
b11000 z
1n
1q
#2800000
0n
0q
#2850000
b11001 z
1n
1q
#2900000
0n
0q
#2950000
b11010 z
1n
1q
#3000000
0n
0q
#3050000
b11011 z
1n
1q
#3100000
0n
0q
#3150000
b11100 z
1n
1q
#3200000
0n
0q
#3250000
b11101 z
1n
1q
#3300000
0n
0q
#3350000
b11110 z
1n
1q
#3400000
0n
0q
#3450000
b11111 z
1n
1q
#3500000
0n
0q
#3550000
b100000 z
1n
1q
#3600000
0n
0q
#3650000
b100001 z
1n
1q
#3700000
0n
0q
#3750000
b100010 z
1n
1q
#3800000
0n
0q
#3850000
b100011 z
1n
1q
#3900000
0n
0q
#3950000
b100100 z
1n
1q
#4000000
0n
0q
#4050000
b100101 z
1n
1q
#4100000
0n
0q
#4150000
b100110 z
1n
1q
#4200000
0n
0q
#4250000
b100111 z
1n
1q
#4300000
0n
0q
#4350000
b101000 z
1n
1q
#4400000
0n
0q
#4450000
b101001 z
1n
1q
#4500000
0n
0q
#4550000
b101010 z
1n
1q
#4600000
0n
0q
#4650000
b101011 z
1n
1q
#4700000
0n
0q
#4750000
b101100 z
1n
1q
#4800000
0n
0q
#4850000
b101101 z
1n
1q
#4900000
0n
0q
#4950000
b101110 z
1n
1q
#5000000
0n
0q
#5050000
b101111 z
1n
1q
#5100000
0n
0q
#5150000
b110000 z
1n
1q
#5200000
0n
0q
#5250000
b110001 z
1n
1q
#5300000
0n
0q
#5350000
b110010 z
1n
1q
#5400000
0n
0q
#5450000
b110011 z
1n
1q
#5500000
0n
0q
#5550000
b110100 z
1n
1q
#5600000
0n
0q
#5650000
b110101 z
1n
1q
#5700000
0n
0q
#5750000
b110110 z
1n
1q
#5800000
0n
0q
#5850000
b110111 z
1n
1q
#5900000
0n
0q
#5950000
b111000 z
1n
1q
#6000000
0n
0q
#6050000
b111001 z
1n
1q
#6100000
0n
0q
#6150000
b111010 z
1n
1q
#6200000
0n
0q
#6250000
b111011 z
1n
1q
#6300000
0n
0q
#6350000
b111100 z
1n
1q
#6400000
0n
0q
#6450000
b111101 z
1n
1q
#6500000
0n
0q
#6550000
b111110 z
1n
1q
#6600000
0n
0q
#6650000
b111111 z
1n
1q
#6700000
0n
0q
#6750000
b1 %"
b0 z
1n
1q
#6800000
0n
0q
#6850000
b1 z
1n
1q
#6900000
0n
0q
#6950000
b10 z
1n
1q
#7000000
0n
0q
#7050000
b11 z
1n
1q
#7100000
0n
0q
#7150000
b100 z
1n
1q
#7200000
0n
0q
#7250000
b101 z
1n
1q
#7300000
0n
0q
#7350000
b110 z
1n
1q
#7400000
0n
0q
#7450000
b111 z
1n
1q
#7500000
0n
0q
#7550000
b1000 z
1n
1q
#7600000
0n
0q
#7650000
b1001 z
1n
1q
#7700000
0n
0q
#7750000
b1010 z
1n
1q
#7800000
0n
0q
#7850000
b1011 z
1n
1q
#7900000
0n
0q
#7950000
b1100 z
1n
1q
#8000000
0n
0q
#8050000
b1101 z
1n
1q
#8100000
0n
0q
#8150000
b1110 z
1n
1q
#8200000
0n
0q
#8250000
b1111 z
1n
1q
#8300000
0n
0q
#8350000
b10000 z
1n
1q
#8400000
0n
0q
#8450000
b10001 z
1n
1q
#8500000
0n
0q
#8550000
b10010 z
1n
1q
#8600000
0n
0q
#8650000
b10011 z
1n
1q
#8700000
0n
0q
#8750000
b10100 z
1n
1q
#8800000
0n
0q
#8850000
b10101 z
1n
1q
#8900000
0n
0q
#8950000
b10110 z
1n
1q
#9000000
0n
0q
#9050000
b10111 z
1n
1q
#9100000
0n
0q
#9150000
b11000 z
1n
1q
#9200000
0n
0q
#9250000
b11001 z
1n
1q
#9300000
0n
0q
#9350000
b11010 z
1n
1q
#9400000
0n
0q
#9450000
b11011 z
1n
1q
#9500000
0n
0q
#9550000
b11100 z
1n
1q
#9600000
0n
0q
#9650000
b11101 z
1n
1q
#9700000
0n
0q
#9750000
b11110 z
1n
1q
#9800000
0n
0q
#9850000
b11111 z
1n
1q
#9900000
0n
0q
#9950000
b100000 z
1n
1q
#10000000
0n
0q
#10050000
b100001 z
1n
1q
#10100000
0n
0q
#10150000
b100010 z
1n
1q
#10200000
0n
0q
#10250000
b100011 z
1n
1q
#10300000
0n
0q
#10350000
b100100 z
1n
1q
#10400000
0n
0q
#10450000
b100101 z
1n
1q
#10500000
0n
0q
#10550000
b100110 z
1n
1q
#10600000
0n
0q
#10650000
b100111 z
1n
1q
#10700000
0n
0q
#10750000
b101000 z
1n
1q
#10800000
0n
0q
#10850000
b101001 z
1n
1q
#10900000
0n
0q
#10950000
b101010 z
1n
1q
#11000000
0n
0q
#11050000
b101011 z
1n
1q
#11100000
0n
0q
#11150000
b101100 z
1n
1q
#11200000
0n
0q
#11250000
b101101 z
1n
1q
#11300000
0n
0q
#11350000
b101110 z
1n
1q
#11400000
0n
0q
#11450000
b101111 z
1n
1q
#11500000
0n
0q
#11550000
b110000 z
1n
1q
#11600000
0n
0q
#11650000
b110001 z
1n
1q
#11700000
0n
0q
#11750000
b110010 z
1n
1q
#11800000
0n
0q
#11850000
b110011 z
1n
1q
#11900000
0n
0q
#11950000
b110100 z
1n
1q
#12000000
0n
0q
#12050000
b110101 z
1n
1q
#12100000
0n
0q
#12150000
b110110 z
1n
1q
#12200000
0n
0q
#12250000
b110111 z
1n
1q
#12300000
0n
0q
#12350000
b111000 z
1n
1q
#12400000
0n
0q
#12450000
b111001 z
1n
1q
#12500000
0n
0q
#12550000
b111010 z
1n
1q
#12600000
0n
0q
#12650000
b111011 z
1n
1q
#12700000
0n
0q
#12750000
b111100 z
1n
1q
#12800000
0n
0q
#12850000
b111101 z
1n
1q
#12900000
0n
0q
#12950000
b111110 z
1n
1q
#13000000
0n
0q
#13050000
b111111 z
1n
1q
#13100000
0n
0q
#13150000
b10 %"
b0 z
1n
1q
#13200000
0n
0q
#13250000
b1 z
1n
1q
#13300000
0n
0q
#13350000
b10 z
1n
1q
#13400000
0n
0q
#13450000
b11 z
1n
1q
#13500000
0n
0q
#13550000
b100 z
1n
1q
#13600000
0n
0q
#13650000
b101 z
1n
1q
#13700000
0n
0q
#13750000
b110 z
1n
1q
#13800000
0n
0q
#13850000
b111 z
1n
1q
#13900000
0n
0q
#13950000
b1000 z
1n
1q
#14000000
0n
0q
#14050000
b1001 z
1n
1q
#14100000
0n
0q
#14150000
b1010 z
1n
1q
#14200000
0n
0q
#14250000
b1011 z
1n
1q
#14300000
0n
0q
#14350000
b1100 z
1n
1q
#14400000
0n
0q
#14450000
b1101 z
1n
1q
#14500000
0n
0q
#14550000
b1110 z
1n
1q
#14600000
0n
0q
#14650000
b1111 z
1n
1q
#14700000
0n
0q
#14750000
b10000 z
1n
1q
#14800000
0n
0q
#14850000
b10001 z
1n
1q
#14900000
0n
0q
#14950000
b10010 z
1n
1q
#15000000
0n
0q
#15050000
b10011 z
1n
1q
#15100000
0n
0q
#15150000
b10100 z
1n
1q
#15200000
0n
0q
#15250000
b10101 z
1n
1q
#15300000
0n
0q
#15350000
b10110 z
1n
1q
#15400000
0n
0q
#15450000
b10111 z
1n
1q
#15500000
0n
0q
#15550000
b11000 z
1n
1q
#15600000
0n
0q
#15650000
b11001 z
1n
1q
#15700000
0n
0q
#15750000
b11010 z
1n
1q
#15800000
0n
0q
#15850000
b11011 z
1n
1q
#15900000
0n
0q
#15950000
b11100 z
1n
1q
#16000000
0n
0q
#16050000
b11101 z
1n
1q
#16100000
0n
0q
#16150000
b11110 z
1n
1q
#16200000
0n
0q
#16250000
b11111 z
1n
1q
#16300000
0n
0q
#16350000
b100000 z
1n
1q
#16400000
0n
0q
#16450000
b100001 z
1n
1q
#16500000
0n
0q
#16550000
b100010 z
1n
1q
#16600000
0n
0q
#16650000
b100011 z
1n
1q
#16700000
0n
0q
#16750000
b100100 z
1n
1q
#16800000
0n
0q
#16850000
b100101 z
1n
1q
#16900000
0n
0q
#16950000
b100110 z
1n
1q
#17000000
0n
0q
#17050000
b100111 z
1n
1q
#17100000
0n
0q
#17150000
b101000 z
1n
1q
#17200000
0n
0q
#17250000
b101001 z
1n
1q
#17300000
0n
0q
#17350000
b101010 z
1n
1q
#17400000
0n
0q
#17450000
b101011 z
1n
1q
#17500000
0n
0q
#17550000
b101100 z
1n
1q
#17600000
0n
0q
#17650000
b101101 z
1n
1q
#17700000
0n
0q
#17750000
b101110 z
1n
1q
#17800000
0n
0q
#17850000
b101111 z
1n
1q
#17900000
0n
0q
#17950000
b110000 z
1n
1q
#18000000
0n
0q
#18050000
b110001 z
1n
1q
#18100000
0n
0q
#18150000
b110010 z
1n
1q
#18200000
0n
0q
#18250000
b110011 z
1n
1q
#18300000
0n
0q
#18350000
b110100 z
1n
1q
#18400000
0n
0q
#18450000
b110101 z
1n
1q
#18500000
0n
0q
#18550000
b110110 z
1n
1q
#18600000
0n
0q
#18650000
b110111 z
1n
1q
#18700000
0n
0q
#18750000
b111000 z
1n
1q
#18800000
0n
0q
#18850000
b111001 z
1n
1q
#18900000
0n
0q
#18950000
b111010 z
1n
1q
#19000000
0n
0q
#19050000
b111011 z
1n
1q
#19100000
0n
0q
#19150000
b111100 z
1n
1q
#19200000
0n
0q
#19250000
b111101 z
1n
1q
#19300000
0n
0q
#19350000
b111110 z
1n
1q
#19400000
0n
0q
#19450000
b111111 z
1n
1q
#19500000
0n
0q
#19550000
b11 %"
b0 z
1n
1q
#19600000
0n
0q
#19650000
b1 z
1n
1q
#19700000
0n
0q
#19750000
b10 z
1n
1q
#19800000
0n
0q
#19850000
b11 z
1n
1q
#19900000
0n
0q
#19950000
b100 z
1n
1q
#20000000
0n
0q
#20050000
b101 z
1n
1q
#20100000
0n
0q
#20150000
b110 z
1n
1q
#20200000
0n
0q
#20250000
b111 z
1n
1q
#20300000
0n
0q
#20350000
b1000 z
1n
1q
#20400000
0n
0q
#20450000
b1001 z
1n
1q
#20500000
0n
0q
#20550000
b1010 z
1n
1q
#20600000
0n
0q
#20650000
b1011 z
1n
1q
#20700000
0n
0q
#20750000
b1100 z
1n
1q
#20800000
0n
0q
#20850000
b1101 z
1n
1q
#20900000
0n
0q
#20950000
b1110 z
1n
1q
#21000000
0n
0q
#21050000
b1111 z
1n
1q
#21100000
0n
0q
#21150000
b10000 z
1n
1q
#21200000
0n
0q
#21250000
b10001 z
1n
1q
#21300000
0n
0q
#21350000
b10010 z
1n
1q
#21400000
0n
0q
#21450000
b10011 z
1n
1q
#21500000
0n
0q
#21550000
b10100 z
1n
1q
#21600000
0n
0q
#21650000
b10101 z
1n
1q
#21700000
0n
0q
#21750000
b10110 z
1n
1q
#21800000
0n
0q
#21850000
b10111 z
1n
1q
#21900000
0n
0q
#21950000
b11000 z
1n
1q
#22000000
0n
0q
#22050000
b11001 z
1n
1q
#22100000
0n
0q
#22150000
b11010 z
1n
1q
#22200000
0n
0q
#22250000
b11011 z
1n
1q
#22300000
0n
0q
#22350000
b11100 z
1n
1q
#22400000
0n
0q
#22450000
b11101 z
1n
1q
#22500000
0n
0q
#22550000
b11110 z
1n
1q
#22600000
0n
0q
#22650000
b11111 z
1n
1q
#22700000
0n
0q
#22750000
b100000 z
1n
1q
#22800000
0n
0q
#22850000
b100001 z
1n
1q
#22900000
0n
0q
#22950000
b100010 z
1n
1q
#23000000
0n
0q
#23050000
b100011 z
1n
1q
#23100000
0n
0q
#23150000
b100100 z
1n
1q
#23200000
0n
0q
#23250000
b100101 z
1n
1q
#23300000
0n
0q
#23350000
b100110 z
1n
1q
#23400000
0n
0q
#23450000
b100111 z
1n
1q
#23500000
0n
0q
#23550000
b101000 z
1n
1q
#23600000
0n
0q
#23650000
b101001 z
1n
1q
#23700000
0n
0q
#23750000
b101010 z
1n
1q
#23800000
0n
0q
#23850000
b101011 z
1n
1q
#23900000
0n
0q
#23950000
b101100 z
1n
1q
#24000000
0n
0q
#24050000
b101101 z
1n
1q
#24100000
0n
0q
#24150000
b101110 z
1n
1q
#24200000
0n
0q
#24250000
b101111 z
1n
1q
#24300000
0n
0q
#24350000
b110000 z
1n
1q
#24400000
0n
0q
#24450000
b110001 z
1n
1q
#24500000
0n
0q
#24550000
b110010 z
1n
1q
#24600000
0n
0q
#24650000
b110011 z
1n
1q
#24700000
0n
0q
#24750000
b110100 z
1n
1q
#24800000
0n
0q
#24850000
b110101 z
1n
1q
#24900000
0n
0q
#24950000
b110110 z
1n
1q
#25000000
0n
0q
#25050000
b110111 z
1n
1q
#25100000
0n
0q
#25150000
b111000 z
1n
1q
#25200000
0n
0q
#25250000
b111001 z
1n
1q
#25300000
0n
0q
#25350000
b111010 z
1n
1q
#25400000
0n
0q
#25450000
b111011 z
1n
1q
#25500000
0n
0q
#25550000
b111100 z
1n
1q
#25600000
0n
0q
#25650000
b111101 z
1n
1q
#25700000
0n
0q
#25750000
b111110 z
1n
1q
#25800000
0n
0q
#25850000
b111111 z
1n
1q
#25900000
0n
0q
#25950000
b100 %"
b0 z
1n
1q
#26000000
0n
0q
#26050000
b1 z
1n
1q
#26100000
0n
0q
#26150000
b10 z
1n
1q
#26200000
0n
0q
#26250000
b11 z
1n
1q
#26300000
0n
0q
#26350000
b100 z
1n
1q
#26400000
0n
0q
#26450000
b101 z
1n
1q
#26500000
0n
0q
#26550000
b110 z
1n
1q
#26600000
0n
0q
#26650000
b111 z
1n
1q
#26700000
0n
0q
#26750000
b1000 z
1n
1q
#26800000
0n
0q
#26850000
b1001 z
1n
1q
#26900000
0n
0q
#26950000
b1010 z
1n
1q
#27000000
0n
0q
#27050000
b1011 z
1n
1q
#27100000
0n
0q
#27150000
b1100 z
1n
1q
#27200000
0n
0q
#27250000
b1101 z
1n
1q
#27300000
0n
0q
#27350000
b1110 z
1n
1q
#27400000
0n
0q
#27450000
b1111 z
1n
1q
#27500000
0n
0q
#27550000
b10000 z
1n
1q
#27600000
0n
0q
#27650000
b10001 z
1n
1q
#27700000
0n
0q
#27750000
b10010 z
1n
1q
#27800000
0n
0q
#27850000
b10011 z
1n
1q
#27900000
0n
0q
#27950000
b10100 z
1n
1q
#28000000
0n
0q
#28050000
b10101 z
1n
1q
#28100000
0n
0q
#28150000
b10110 z
1n
1q
#28200000
0n
0q
#28250000
b10111 z
1n
1q
#28300000
0n
0q
#28350000
b11000 z
1n
1q
#28400000
0n
0q
#28450000
b11001 z
1n
1q
#28500000
0n
0q
#28550000
b11010 z
1n
1q
#28600000
0n
0q
#28650000
b11011 z
1n
1q
#28700000
0n
0q
#28750000
b11100 z
1n
1q
#28800000
0n
0q
#28850000
b11101 z
1n
1q
#28900000
0n
0q
#28950000
b11110 z
1n
1q
#29000000
0n
0q
#29050000
b11111 z
1n
1q
#29100000
0n
0q
#29150000
b100000 z
1n
1q
#29200000
0n
0q
#29250000
b100001 z
1n
1q
#29300000
0n
0q
#29350000
b100010 z
1n
1q
#29400000
0n
0q
#29450000
b100011 z
1n
1q
#29500000
0n
0q
#29550000
b100100 z
1n
1q
#29600000
0n
0q
#29650000
b100101 z
1n
1q
#29700000
0n
0q
#29750000
b100110 z
1n
1q
#29800000
0n
0q
#29850000
b100111 z
1n
1q
#29900000
0n
0q
#29950000
b101000 z
1n
1q
#30000000
0n
0q
#30050000
b101001 z
1n
1q
#30100000
0n
0q
#30150000
b101010 z
1n
1q
#30200000
0n
0q
#30250000
b101011 z
1n
1q
#30300000
0n
0q
#30350000
b101100 z
1n
1q
#30400000
0n
0q
#30450000
b101101 z
1n
1q
#30500000
0n
0q
#30550000
b101110 z
1n
1q
#30600000
0n
0q
#30650000
b101111 z
1n
1q
#30700000
0n
0q
#30750000
b110000 z
1n
1q
#30800000
0n
0q
#30850000
b110001 z
1n
1q
#30900000
0n
0q
#30950000
b110010 z
1n
1q
#31000000
0n
0q
#31050000
b110011 z
1n
1q
#31100000
0n
0q
#31150000
b110100 z
1n
1q
#31200000
0n
0q
#31250000
b110101 z
1n
1q
#31300000
0n
0q
#31350000
b110110 z
1n
1q
#31400000
0n
0q
#31450000
b110111 z
1n
1q
#31500000
0n
0q
#31550000
b111000 z
1n
1q
#31600000
0n
0q
#31650000
b111001 z
1n
1q
#31700000
0n
0q
#31750000
b111010 z
1n
1q
#31800000
0n
0q
#31850000
b111011 z
1n
1q
#31900000
0n
0q
#31950000
b111100 z
1n
1q
#32000000
0n
0q
#32050000
b111101 z
1n
1q
#32100000
0n
0q
#32150000
b111110 z
1n
1q
#32200000
0n
0q
#32250000
b111111 z
1n
1q
#32300000
0n
0q
#32350000
b101 %"
b0 z
1n
1q
#32400000
0n
0q
#32450000
b1 z
1n
1q
#32500000
0n
0q
#32550000
b10 z
1n
1q
#32600000
0n
0q
#32650000
b11 z
1n
1q
#32700000
0n
0q
#32750000
b100 z
1n
1q
#32800000
0n
0q
#32850000
b101 z
1n
1q
#32900000
0n
0q
#32950000
b110 z
1n
1q
#33000000
0n
0q
#33050000
b111 z
1n
1q
#33100000
0n
0q
#33150000
b1000 z
1n
1q
#33200000
0n
0q
#33250000
b1001 z
1n
1q
#33300000
0n
0q
#33350000
b1010 z
1n
1q
#33400000
0n
0q
#33450000
b1011 z
1n
1q
#33500000
0n
0q
#33550000
b1100 z
1n
1q
#33600000
0n
0q
#33650000
b1101 z
1n
1q
#33700000
0n
0q
#33750000
b1110 z
1n
1q
#33800000
0n
0q
#33850000
b1111 z
1n
1q
#33900000
0n
0q
#33950000
b10000 z
1n
1q
#34000000
0n
0q
#34050000
b10001 z
1n
1q
#34100000
0n
0q
#34150000
b10010 z
1n
1q
#34200000
0n
0q
#34250000
b10011 z
1n
1q
#34300000
0n
0q
#34350000
b10100 z
1n
1q
#34400000
0n
0q
#34450000
b10101 z
1n
1q
#34500000
0n
0q
#34550000
b10110 z
1n
1q
#34600000
0n
0q
#34650000
b10111 z
1n
1q
#34700000
0n
0q
#34750000
b11000 z
1n
1q
#34800000
0n
0q
#34850000
b11001 z
1n
1q
#34900000
0n
0q
#34950000
b11010 z
1n
1q
#35000000
0n
0q
#35050000
b11011 z
1n
1q
#35100000
0n
0q
#35150000
b11100 z
1n
1q
#35200000
0n
0q
#35250000
b11101 z
1n
1q
#35300000
0n
0q
#35350000
b11110 z
1n
1q
#35400000
0n
0q
#35450000
b11111 z
1n
1q
#35500000
0n
0q
#35550000
b100000 z
1n
1q
#35600000
0n
0q
#35650000
b100001 z
1n
1q
#35700000
0n
0q
#35750000
b100010 z
1n
1q
#35800000
0n
0q
#35850000
b100011 z
1n
1q
